,0,1,2,3,4,5,6,7,8,9,10,11,12,13,14,15,16,17,18,19
SCA,0,0,0,0,0,1,1,1,1,1,2,2,2,2,2,3,3,3,3,3
AVDD,30,12,19,5,17,19,2,30,7,13,29,11,23,2,18,13,2,24,7,30
AVDD_GND,27,9,22,0,15,22,4,27,10,16,27,9,20,4,15,16,4,21,10,27
DVDD,25,7,20,3,14,24,6,29,12,18,25,8,19,3,13,18,6,23,12,29
DVDD_GND,26,8,21,2,13,23,5,28,11,17,26,7,21,0,14,17,5,22,11,28
TEMP,28,10,23,4,16,20,0,26,8,14,28,10,22,5,16,15,0,20,9,26
TEMP_GND,29,11,24,6,18,21,3,25,9,15,30,12,24,6,17,14,3,19,8,25
