channel_0_mode,00
channel_1_mode,00
channel_2_mode,00
channel_3_mode,00
channel_4_mode,00
channel_5_mode,00
channel_6_mode,00
channel_7_mode,00
chip_mode,0
deadtime,111
int_gate,0100
rundown_curr,010
hyst,1110
wilk_thr,010
main_thr,01110010
unused,0000000000000
